{
    "$schema": "https://docs.renovatebot.com/renovate-schema.json",
    "assignees": [
        "tedtramonte"
    ],
    "autodiscover": true,
    "autodiscoverFilter": "/(tedtramonte|door-to-darkness)\\/.*/",
    "endpoint": "https://gitlab.com/api/v4",
    "extends": [
        "config:base",
        "docker:pinDigests",
        ":semanticCommits"
    ],
    "schedule": [
        "after 3am every weekend",
        "before 6am every weekend"
    ],
    "gitAuthor": "Renovate Bot <renovate@tramonte.us>",
    "ignorePrAuthor": true,
    "onboarding": true,
    "onboardingConfig": {
        "$schema": "https://docs.renovatebot.com/renovate-schema.json"
    },
    "onboardingPrTitle": "ci: configure Renovate",
    "optimizeForDisabled": true,
    "platform": "gitlab",
    "requireConfig": "required",
    "reviewersFromCodeOwners": true,
    "semanticCommits": "enabled",
    "ignoreTests": true,
    "separateMultipleMajor": true
}
